Jonathan McJonathanFace

Julio McJulioFace

Francis McFrancisFace

Julia McJuliaFace

Kevin McKevinFace

Julio McJulioFace

Francis McFrancisFace

Jerry McJerryFace

Reggie McReggieFace

Face McFaceFace

Julio McJulioFace
Julia McJuliaFace
Devin McDevinFace

Kevin McKevinFace

Francis McFrancisFace
